-- Merging decision tree log ---
manifest
ADDED from /Users/hjrnet/Documents/radiolist/app/src/main/AndroidManifest.xml:1:1-58:12
	package
		ADDED from /Users/hjrnet/Documents/radiolist/app/src/main/AndroidManifest.xml:2:5-31
		INJECTED from /Users/hjrnet/Documents/radiolist/app/src/main/AndroidManifest.xml
		INJECTED from /Users/hjrnet/Documents/radiolist/app/src/main/AndroidManifest.xml
	android:versionName
		ADDED from /Users/hjrnet/Documents/radiolist/app/src/main/AndroidManifest.xml:4:5-30
		INJECTED from /Users/hjrnet/Documents/radiolist/app/src/main/AndroidManifest.xml
		INJECTED from /Users/hjrnet/Documents/radiolist/app/src/main/AndroidManifest.xml
	android:versionCode
		ADDED from /Users/hjrnet/Documents/radiolist/app/src/main/AndroidManifest.xml:3:5-28
		INJECTED from /Users/hjrnet/Documents/radiolist/app/src/main/AndroidManifest.xml
		INJECTED from /Users/hjrnet/Documents/radiolist/app/src/main/AndroidManifest.xml
	xmlns:android
		ADDED from /Users/hjrnet/Documents/radiolist/app/src/main/AndroidManifest.xml:1:11-69
uses-sdk
ADDED from /Users/hjrnet/Documents/radiolist/app/src/main/AndroidManifest.xml:6:5-8:41
MERGED from [com.google.android.gms:play-services-ads:8.4.0] /Users/hjrnet/Documents/radiolist/app/build/intermediates/exploded-aar/com.google.android.gms/play-services-ads/8.4.0/AndroidManifest.xml:23:5-42
MERGED from [com.google.android.gms:play-services-basement:8.4.0] /Users/hjrnet/Documents/radiolist/app/build/intermediates/exploded-aar/com.google.android.gms/play-services-basement/8.4.0/AndroidManifest.xml:18:5-42
MERGED from [com.android.support:support-v4:25.1.0] /Users/hjrnet/Documents/radiolist/app/build/intermediates/exploded-aar/com.android.support/support-v4/25.1.0/AndroidManifest.xml:21:5-23:54
MERGED from [com.android.support:support-fragment:25.1.0] /Users/hjrnet/Documents/radiolist/app/build/intermediates/exploded-aar/com.android.support/support-fragment/25.1.0/AndroidManifest.xml:21:5-23:60
MERGED from [com.android.support:support-media-compat:25.1.0] /Users/hjrnet/Documents/radiolist/app/build/intermediates/exploded-aar/com.android.support/support-media-compat/25.1.0/AndroidManifest.xml:21:5-23:63
MERGED from [com.android.support:support-core-ui:25.1.0] /Users/hjrnet/Documents/radiolist/app/build/intermediates/exploded-aar/com.android.support/support-core-ui/25.1.0/AndroidManifest.xml:21:5-23:58
MERGED from [com.android.support:support-core-utils:25.1.0] /Users/hjrnet/Documents/radiolist/app/build/intermediates/exploded-aar/com.android.support/support-core-utils/25.1.0/AndroidManifest.xml:21:5-23:61
MERGED from [com.android.support:support-compat:25.1.0] /Users/hjrnet/Documents/radiolist/app/build/intermediates/exploded-aar/com.android.support/support-compat/25.1.0/AndroidManifest.xml:21:5-23:58
	tools:overrideLibrary
		ADDED from [com.android.support:support-v4:25.1.0] /Users/hjrnet/Documents/radiolist/app/build/intermediates/exploded-aar/com.android.support/support-v4/25.1.0/AndroidManifest.xml:23:9-51
	android:targetSdkVersion
		ADDED from /Users/hjrnet/Documents/radiolist/app/src/main/AndroidManifest.xml:8:9-38
		INJECTED from /Users/hjrnet/Documents/radiolist/app/src/main/AndroidManifest.xml
		INJECTED from /Users/hjrnet/Documents/radiolist/app/src/main/AndroidManifest.xml
	android:minSdkVersion
		ADDED from /Users/hjrnet/Documents/radiolist/app/src/main/AndroidManifest.xml:7:9-34
		INJECTED from /Users/hjrnet/Documents/radiolist/app/src/main/AndroidManifest.xml
		INJECTED from /Users/hjrnet/Documents/radiolist/app/src/main/AndroidManifest.xml
uses-permission#android.permission.INTERNET
ADDED from /Users/hjrnet/Documents/radiolist/app/src/main/AndroidManifest.xml:10:5-67
MERGED from [com.google.android.gms:play-services-ads:8.4.0] /Users/hjrnet/Documents/radiolist/app/build/intermediates/exploded-aar/com.google.android.gms/play-services-ads/8.4.0/AndroidManifest.xml:20:5-66
	android:name
		ADDED from /Users/hjrnet/Documents/radiolist/app/src/main/AndroidManifest.xml:10:22-64
uses-permission#android.permission.ACCESS_NETWORK_STATE
ADDED from /Users/hjrnet/Documents/radiolist/app/src/main/AndroidManifest.xml:11:5-79
MERGED from [com.google.android.gms:play-services-ads:8.4.0] /Users/hjrnet/Documents/radiolist/app/build/intermediates/exploded-aar/com.google.android.gms/play-services-ads/8.4.0/AndroidManifest.xml:21:5-78
	android:name
		ADDED from /Users/hjrnet/Documents/radiolist/app/src/main/AndroidManifest.xml:11:22-76
uses-permission#android.permission.WRITE_EXTERNAL_STORAGE
ADDED from /Users/hjrnet/Documents/radiolist/app/src/main/AndroidManifest.xml:12:5-81
	android:name
		ADDED from /Users/hjrnet/Documents/radiolist/app/src/main/AndroidManifest.xml:12:22-78
uses-permission#android.permission.GET_TASKS
ADDED from /Users/hjrnet/Documents/radiolist/app/src/main/AndroidManifest.xml:13:5-67
	android:name
		ADDED from /Users/hjrnet/Documents/radiolist/app/src/main/AndroidManifest.xml:13:22-65
permission#android.permission.MEDIA_CONTENT_CONTROL
ADDED from /Users/hjrnet/Documents/radiolist/app/src/main/AndroidManifest.xml:14:5-75
	android:name
		ADDED from /Users/hjrnet/Documents/radiolist/app/src/main/AndroidManifest.xml:14:17-72
uses-permission#android.permission.WAKE_LOCK
ADDED from /Users/hjrnet/Documents/radiolist/app/src/main/AndroidManifest.xml:16:5-68
	android:name
		ADDED from /Users/hjrnet/Documents/radiolist/app/src/main/AndroidManifest.xml:16:22-65
uses-permission#android.permission.RECEIVE_BOOT_COMPLETED
ADDED from /Users/hjrnet/Documents/radiolist/app/src/main/AndroidManifest.xml:17:5-81
	android:name
		ADDED from /Users/hjrnet/Documents/radiolist/app/src/main/AndroidManifest.xml:17:22-78
meta-data#com.google.android.gms.version
ADDED from /Users/hjrnet/Documents/radiolist/app/src/main/AndroidManifest.xml:18:5-20:65
	android:value
		ADDED from /Users/hjrnet/Documents/radiolist/app/src/main/AndroidManifest.xml:20:9-62
	android:name
		ADDED from /Users/hjrnet/Documents/radiolist/app/src/main/AndroidManifest.xml:19:9-54
application
ADDED from /Users/hjrnet/Documents/radiolist/app/src/main/AndroidManifest.xml:21:5-56:19
MERGED from [com.google.android.gms:play-services-ads:8.4.0] /Users/hjrnet/Documents/radiolist/app/build/intermediates/exploded-aar/com.google.android.gms/play-services-ads/8.4.0/AndroidManifest.xml:24:5-32:19
MERGED from [com.google.android.gms:play-services-basement:8.4.0] /Users/hjrnet/Documents/radiolist/app/build/intermediates/exploded-aar/com.google.android.gms/play-services-basement/8.4.0/AndroidManifest.xml:20:5-24:19
MERGED from [com.android.support:support-v4:25.1.0] /Users/hjrnet/Documents/radiolist/app/build/intermediates/exploded-aar/com.android.support/support-v4/25.1.0/AndroidManifest.xml:25:5-20
MERGED from [com.android.support:support-fragment:25.1.0] /Users/hjrnet/Documents/radiolist/app/build/intermediates/exploded-aar/com.android.support/support-fragment/25.1.0/AndroidManifest.xml:25:5-20
MERGED from [com.android.support:support-media-compat:25.1.0] /Users/hjrnet/Documents/radiolist/app/build/intermediates/exploded-aar/com.android.support/support-media-compat/25.1.0/AndroidManifest.xml:25:5-20
MERGED from [com.android.support:support-core-ui:25.1.0] /Users/hjrnet/Documents/radiolist/app/build/intermediates/exploded-aar/com.android.support/support-core-ui/25.1.0/AndroidManifest.xml:25:5-20
MERGED from [com.android.support:support-core-utils:25.1.0] /Users/hjrnet/Documents/radiolist/app/build/intermediates/exploded-aar/com.android.support/support-core-utils/25.1.0/AndroidManifest.xml:25:5-20
MERGED from [com.android.support:support-compat:25.1.0] /Users/hjrnet/Documents/radiolist/app/build/intermediates/exploded-aar/com.android.support/support-compat/25.1.0/AndroidManifest.xml:25:5-20
	android:label
		ADDED from /Users/hjrnet/Documents/radiolist/app/src/main/AndroidManifest.xml:23:9-41
	android:icon
		ADDED from /Users/hjrnet/Documents/radiolist/app/src/main/AndroidManifest.xml:22:9-45
	android:theme
		ADDED from /Users/hjrnet/Documents/radiolist/app/src/main/AndroidManifest.xml:24:9-40
activity#com.hjrnet.radio.MainActivity
ADDED from /Users/hjrnet/Documents/radiolist/app/src/main/AndroidManifest.xml:25:9-32:20
	android:screenOrientation
		ADDED from /Users/hjrnet/Documents/radiolist/app/src/main/AndroidManifest.xml:26:13-49
	android:name
		ADDED from /Users/hjrnet/Documents/radiolist/app/src/main/AndroidManifest.xml:25:19-47
intent-filter#android.intent.action.MAIN+android.intent.category.LAUNCHER
ADDED from /Users/hjrnet/Documents/radiolist/app/src/main/AndroidManifest.xml:27:13-31:29
action#android.intent.action.MAIN
ADDED from /Users/hjrnet/Documents/radiolist/app/src/main/AndroidManifest.xml:28:17-69
	android:name
		ADDED from /Users/hjrnet/Documents/radiolist/app/src/main/AndroidManifest.xml:28:25-66
category#android.intent.category.LAUNCHER
ADDED from /Users/hjrnet/Documents/radiolist/app/src/main/AndroidManifest.xml:30:17-77
	android:name
		ADDED from /Users/hjrnet/Documents/radiolist/app/src/main/AndroidManifest.xml:30:27-74
activity#com.hjrnet.radio.SingleItemView
ADDED from /Users/hjrnet/Documents/radiolist/app/src/main/AndroidManifest.xml:33:9-35:20
	android:screenOrientation
		ADDED from /Users/hjrnet/Documents/radiolist/app/src/main/AndroidManifest.xml:34:13-49
	android:name
		ADDED from /Users/hjrnet/Documents/radiolist/app/src/main/AndroidManifest.xml:33:19-49
activity#com.google.android.gms.ads.AdActivity
ADDED from /Users/hjrnet/Documents/radiolist/app/src/main/AndroidManifest.xml:36:9-38:125
MERGED from [com.google.android.gms:play-services-ads:8.4.0] /Users/hjrnet/Documents/radiolist/app/build/intermediates/exploded-aar/com.google.android.gms/play-services-ads/8.4.0/AndroidManifest.xml:26:9-29:64
	android:configChanges
		ADDED from /Users/hjrnet/Documents/radiolist/app/src/main/AndroidManifest.xml:38:13-122
	android:theme
		ADDED from [com.google.android.gms:play-services-ads:8.4.0] /Users/hjrnet/Documents/radiolist/app/build/intermediates/exploded-aar/com.google.android.gms/play-services-ads/8.4.0/AndroidManifest.xml:29:13-61
	android:name
		ADDED from /Users/hjrnet/Documents/radiolist/app/src/main/AndroidManifest.xml:37:13-65
activity#com.google.android.gms.ads.purchase.InAppPurchaseActivity
ADDED from [com.google.android.gms:play-services-ads:8.4.0] /Users/hjrnet/Documents/radiolist/app/build/intermediates/exploded-aar/com.google.android.gms/play-services-ads/8.4.0/AndroidManifest.xml:30:9-31:52
	android:theme
		ADDED from [com.google.android.gms:play-services-ads:8.4.0] /Users/hjrnet/Documents/radiolist/app/build/intermediates/exploded-aar/com.google.android.gms/play-services-ads/8.4.0/AndroidManifest.xml:31:13-50
	android:name
		ADDED from [com.google.android.gms:play-services-ads:8.4.0] /Users/hjrnet/Documents/radiolist/app/build/intermediates/exploded-aar/com.google.android.gms/play-services-ads/8.4.0/AndroidManifest.xml:30:19-91
